Multivariate_Analysis
…
# serpina12 remains significant; BMI is biggest predictor of outcome

# fit models for all 5 protein biomarkers
# reformat data
tidy_vars <- dset_vars %>% 
  pivot_longer(cols = c("serpina12", "cpvl", "iqfc3", "pigr", "sesq2"), 
    names_to = "biomarker", 
    values_to = "level", 
    cols_vary = "slowest") %>%
  select(biomarker, level, everything()) %>%
  print()

# A tibble: 165 × 16
   biomarker level study_id   age sex    race      disease   gfr   bmi cardiotox
   <chr>     <dbl>    <dbl> <dbl> <fct>  <fct>     <fct>   <dbl> <dbl> <fct>    
 1 serpina12  11.0        5    24 Female White     Non-Ho…   124  19.9 0        
 2 serpina12  11.2        6    70 Male   African … Follic…    65  24   1        
 3 serpina12  16.5        8    44 Female African … T-Cell…    93  34.5 1        
 4 serpina12  11.5       14    49 Female White     Hodgki…   110  23.6 1        
 5 serpina12  11.5       23    57 Male   Asian     DLBCL     103  23.8 0        
 6 serpina12  11.6       24    61 Female White     DLBCL      73  19.2 0        
 7 serpina12  11.4       25    69 Female White     Hodgki…    94  30.2 1        
 8 serpina12  11.2       30    61 Female White     DLBCL     102  29.1 0        
 9 serpina12  11.8       32    29 Male   White     DLBCL     123  28.7 0        
10 serpina12  11.0       34    27 Female White     Hodgki…   121  20.2 0        
# ℹ 155 more rows
# ℹ 6 more variables: delta_gls <dbl>, delta_lvef <dbl>, abn_gfr <fct>,
#   abn_bmi <fct>, race_category <fct>, disease_category <fct>
…
